{
  "version": "1.14.20.6",
  "date": 1616430712482,
  "Conf": {
    "Redirect to HTTPS": true,
    "JSON Index": true,
    "Use 4chan X Catalog": true,
    "Index Refresh Notifications": false,
    "Follow Cursor": true,
    "Open Threads in New Tab": false,
    "External Catalog": false,
    "Catalog Links": false,
    "Announcement Hiding": true,
    "Desktop Notifications": false,
    "404 Redirect": true,
    "Archive Report": true,
    "Exempt Archives from Encryption": true,
    "Keybinds": true,
    "Time Formatting": true,
    "Relative Post Dates": true,
    "Relative Date Title": true,
    "Comment Expansion": true,
    "File Info Formatting": true,
    "Thread Expansion": true,
    "Index Navigation": false,
    "Reply Navigation": false,
    "Unique ID and Capcode Navigation": false,
    "Custom Board Titles": true,
    "Persistent Custom Board Titles": false,
    "Show Updated Notifications": true,
    "Color User IDs": true,
    "Count Posts by ID": true,
    "Remove Spoilers": false,
    "Reveal Spoilers": false,
    "Normalize URL": true,
    "Work around CORB Bug": true,
    "Disable Autoplaying Sounds": false,
    "Disable Native Extension": true,
    "Enable Native Flash Embedding": true,
    "Linkify": true,
    "Link Title": true,
    "Cover Preview": true,
    "Embedding": true,
    "Auto-embed": false,
    "Floating Embeds": false,
    "Anonymize": false,
    "Filter": true,
    "Filtered Backlinks": false,
    "Filter in Native Catalog": true,
    "MD5 Quick Filter Notifications": true,
    "Recursive Hiding": true,
    "Thread Hiding Buttons": true,
    "Reply Hiding Buttons": true,
    "Stubs": true,
    "Image Expansion": true,
    "Image Hover": false,
    "Image Hover in Catalog": false,
    "Gallery": true,
    "Fullscreen Gallery": false,
    "PDF in Gallery": false,
    "Sauce": true,
    "WEBM Metadata": true,
    "Reveal Spoiler Thumbnails": false,
    "Replace GIF": false,
    "Replace JPG": false,
    "Replace PNG": false,
    "Replace WEBM": false,
    "Image Prefetching": true,
    "Fappe Tyme": true,
    "Werk Tyme": true,
    "Autoplay": true,
    "Restart when Opened": false,
    "Show Controls": true,
    "Click Passthrough": false,
    "Allow Sound": true,
    "Mouse Wheel Volume": true,
    "Loop in New Tab": true,
    "Volume in New Tab": true,
    "Menu": true,
    "Report Link": true,
    "Copy Text Link": true,
    "Thread Hiding Link": true,
    "Reply Hiding Link": true,
    "Delete Link": true,
    "Archive Link": true,
    "Edit Link": true,
    "Download Link": false,
    "Thread Updater": true,
    "Unread Count": true,
    "Quoted Title": false,
    "Hide Unread Count at (0)": false,
    "Unread Favicon": true,
    "Unread Line": true,
    "Remember Last Read Post": true,
    "Scroll to Last Read Post": true,
    "Unread Line in Index": false,
    "Remove Thread Excerpt": false,
    "Thread Stats": true,
    "IP Count in Stats": true,
    "Page Count in Stats": true,
    "Updater and Stats in Header": true,
    "Thread Watcher": true,
    "Fixed Thread Watcher": true,
    "Persistent Thread Watcher": false,
    "Mark New IPs": false,
    "Reply Pruning": true,
    "Prune All Threads": false,
    "Quick Reply": true,
    "Persistent QR": false,
    "Auto Hide QR": true,
    "Open Post in New Tab": true,
    "Remember QR Size": false,
    "Remember Spoiler": false,
    "Randomize Filename": false,
    "Show New Thread Option in Threads": true,
    "Show Upload Progress": true,
    "Cooldown": true,
    "Posting Success Notifications": true,
    "Auto-load captcha": false,
    "Post on Captcha Completion": false,
    "Captcha Fixes": true,
    "Force Noscript Captcha": false,
    "Pass Link": false,
    "Quote Backlinks": true,
    "OP Backlinks": true,
    "Bottom Backlinks": false,
    "Quote Inlining": true,
    "Inline Cross-thread Quotes Only": false,
    "Quote Hash Navigation": false,
    "Forward Hiding": true,
    "Quote Previewing": true,
    "Quote Highlighting": true,
    "Resurrect Quotes": true,
    "Remember Your Posts": true,
    "Mark Quotes of You": true,
    "Highlight Posts Quoting You": true,
    "Highlight Own Posts": true,
    "Mark OP Quotes": true,
    "Mark Cross-thread Quotes": true,
    "Quote Threading": true,
    "Fit width": true,
    "Fit height": false,
    "Scroll into view": true,
    "Expand spoilers": true,
    "Expand videos": true,
    "Expand from here": false,
    "Expand thread only": false,
    "Advance on contract": false,
    "Hide Thumbnails": false,
    "Fit Width": true,
    "Fit Height": true,
    "Stretch to Fit": false,
    "Scroll to Post": true,
    "Slide Delay": 6,
    "Default Volume": 1,
    "Current Board": false,
    "Auto Update Thread Watcher": true,
    "Auto Watch": true,
    "Auto Watch Reply": true,
    "Auto Prune": false,
    "Show Page": true,
    "Show Unread Count": true,
    "Show Site Prefix": true,
    "Require OP Quote Link": false,
    "general": "/dragon ball/i; op:only; stub:no; \n/one piece/i; op:only; stub:no; \n/oda/i; op:only; stub:no; \n/wan piss/i; op:only; stub:no; \n/mha/i; op:only; stub:no; \n/Shingeki no Kyojin/i; op:only; stub:no; \n/KPOP/i; op:only; stub:no; \n/Boku no hero academia/i; op:only; stub:no;\n/BBC/i; op:only; stub:no;\n/shemale/i; op:only; stub:no;\n/BBW/i; op:only; stub:no;\n/traps/i; op:only; stub:no;\n/trans/i; op:only; stub:no;\n/femboys/i; op:only; stub:no;\n/shemales/i; op:only; stub:no;",
    "postID": "# Highlight dubs on [s4s]:\n#/(\\d)\\1$/;highlight;top:no;boards:s4s",
    "name": "# Filter any namefags:\n#/^(?!Anonymous$)/",
    "uniqueID": "# Filter a specific ID:\n#/Txhvk1Tl/",
    "tripcode": "# Filter any tripfag\n#/^!/",
    "capcode": "# Set a custom class for mods:\n#/Mod$/;highlight:mod;op:yes\n# Set a custom class for admins:\n#/Admin$/;highlight:admin;op:yes",
    "pass": "# Filter anyone using since4pass:\n#/./",
    "email": "",
    "subject": "# Filter Generals on /v/:\n#/general/i;boards:v;op:only",
    "comment": "# Filter Stallman copypasta on /g/:\n#/what you're refer+ing to as linux/i;boards:g\n# Filter posts with 20 or more quote links:\n#/(?:>>\\d(?:(?!>>\\d)[^])*){20}/\n# Filter posts like T H I S / H / I / S:\n#/^>?\\s?\\w\\s?(\\w)\\s?(\\w)\\s?(\\w).*$[\\s>]+\\1[\\s>]+\\2[\\s>]+\\3/im",
    "flag": "",
    "filename": "",
    "dimensions": "# Highlight potential wallpapers:\n#/1920x1080/;op:yes;highlight;top:no;boards:w,wg",
    "filesize": "",
    "MD5": "/h8p7ZgLiv9FLzrgnrKXE5A==/\n/MetrQ5SLzYi/cRRFGl2m4Q==/\n/Hq8U2EhqZMvYz3enJAYdSw==/\n/c3KJ7Yvri06kP76u2KeswQ==/\n/YkzConPyj+oaO4OEBJAxBA==/\n/HpUys6MisI7OwDxYdpyNlQ==/\n/v1K4eAsB0sqcvAbfh3nlgA==/\n/rds/59xbFMfILLXJJY9lSg==/\n/v1K4eAsB0sqcvAbfh3nlgA==/\n/S2rCiJ3VOOBmRZtq6CHptw==/\n/aYRY8eiEnZbVrhxpMs76Jw==/\n/+QZcoKFk1kUq42Eeuo6OQw==/\n/qwPPZg+m1/37EklyznCqyQ==/\n/RkixnJGJx8AKZ01zQWF1oA==/\n/lyXYqv+gbUuMQiPFbM+AJA==/\n/niZlxQiYQxXRlEJ3j9dD3w==/\n/aYRY8eiEnZbVrhxpMs76Jw==/\n/coYsvI12Cvopjlur5U0BEA==/\n/mwXmytspnDyDLRNZxUbV7w==/\n/VZivcIBzzlImftcI5kj0kg==/\n/8MqgymsIZILV+2teAUzDvw==/\n/OxWxG0nO1hrCsbHUFwJqyw==/\n/ZIjoeaaGvmK/kCHMPZ4R/A==/\n/SIP3Y6YCfr7ndnPb5msp0w==/\n/TuSwNz+PRY0T/myfiIssPA==/\n/W1WnuWeb/OmOEjzVRhuyXA==/\n/2FU4eesrAiouSzABUOTakQ==/\n/DxRH5+1wmpEiOMmO4nXe5g==/\n/1RaTiDMrQHX/Fe3jULpuqg==/\n/isNcx3qEmM3zUOeCKRx9Hg==/\n/e3TvdH2NreiVBQ7+993o7w==/\n/WS54cJWqqq+zSInCaKUJ2w==/\n//O1HgGCTPvqEG12fT5vkxA==/\n/A3QTcITcg4eUjx0mpKU3vg==/\n/TzZ+hrndWBH+OKpzuez6Gw==/\n/ww6SiODbdhVrqup3aY0i5Q==/\n/+x/pDZcODUGOHEa+84DHxQ==/\n/EYwVkYwSmYD2UQMFE2tJ5w==/\n/hVfYqWkyqyIoWeCi4UQ/DQ==/\n/ta6hxLsOpSEthpcEZ74Knw==/\n/lyNUQ5zb1X61o8vvnG7/4Q==/\n/R0C4pvG4wihkhqvxoYSorA==/\n/gCJ4NZvqeZ2pvYRP9GHVbA==/\n/4ybLs4s5+k/i3SUfN9BzGw==/\n/mMZzo8L03c+0L/JtnmRocw==/\n/c0lQ2vYiwAtqXlrp1zdKhA==/\n/N0aOUBvZo5+1oEu2F3jeeA==/\n/soexEzQ2mIu2xZ0bod+mIg==/\n/BKxxL1tP2pE+ll7RIQL1rA==/\n/i476thC/yEH5pwhTJA7PhA==/\n/QejdUe6lexfELhBXdq+J7A==/\n/VIFIJbtwj79Ae0TkBWWzaw==/\n/+bOfYEJRAycMS+3wDnLtew==/\n/V06P3ug/uWB0cxv0LBzaRQ==/\n/9E87QNJevpWOzIVmQaVzCw==/\n/T0EwV3z1fBCMqBNTeEY1TA==/\n//pQPWZ+5LcRvj+89aLZz3A==/\n/9HuPamHKGmFZAnoQTQtKJQ==/\n/1S23cvnafhRRwlcre27C7g==/",
    "sauces": "# Known filename formats:\nhttps://www.pixiv.net/member_illust.php?mode=medium&illust_id=%$1;regexp:/^(\\d+)_p\\d+/\njavascript:void(open(\"https://www.deviantart.com/\"+%$1.replace(/_/g,\"-\")+\"/art/\"+parseInt(%$2,36)));regexp:/^\\w+_by_(\\w+)[_-]d([\\da-z]{6})\\b/\nhttps://imgur.com/%$1;regexp:/^(?![a-zA-Z][a-z]{6})(?![A-Z]{7})(?!\\d{7})([\\da-zA-Z]{7})(?: \\(\\d+\\))?\\.\\w+$/\nhttps://flickr.com/photo.gne?id=%$1;regexp:/^(\\d+)_[\\da-f]{10}(?:_\\w)*\\b/\nhttps://www.facebook.com/photo.php?fbid=%$1;regexp:/^\\d+_(\\d+)_\\d+_[no]\\b/\n\n# Reverse image search:\nhttps://www.google.com/searchbyimage?image_url=%IMG&safe=off\n#//tineye.com/search?url=%IMG\n#//www.bing.com/images/search?q=imgurl:%IMG&view=detailv2&iss=sbi#enterInsights\n\n# Specialized reverse image search:\n//iqdb.org/?url=%IMG\n#//3d.iqdb.org/?url=%IMG\n//saucenao.com/search.php?url=%IMG\n\n# \"View Same\" in archives:\nhttp://eye.swfchan.com/search/?q=%name;types:swf\n#https://desuarchive.org/_/search/image/%sMD5/\n#https://archive.4plebs.org/_/search/image/%sMD5/\n#https://boards.fireden.net/_/search/image/%sMD5/\n#https://foolz.fireden.net/_/search/image/%sMD5/\n\n# Other tools:\n#http://exif.regex.info/exif.cgi?imgurl=%URL\n#//imgops.com/start?url=%URL;types:gif,jpg,png\n#//www.gif-explode.com/%URL;types:gif",
    "werk": false,
    "Custom CSS": true,
    "Index Mode": "catalog",
    "Previous Index Mode": "infinite",
    "Index Size": "small",
    "Show Replies": true,
    "Catalog Hover Expand": false,
    "Catalog Hover Toggle": true,
    "Pin Watched Threads": false,
    "Anchor Hidden Threads": true,
    "Refreshed Navigation": false,
    "Fixed Header": true,
    "Header auto-hide": false,
    "Header auto-hide on scroll": false,
    "Bottom Header": false,
    "Centered links": false,
    "Header catalog links": false,
    "Bottom Board List": true,
    "Shortcut Icons": true,
    "Custom Board Navigation": true,
    "archiveLists": "https://4chenz.github.io/archives.json/archives.json",
    "lastarchivecheck": 1616345799875,
    "archiveAutoUpdate": true,
    "externalCatalogURLs": "//catalog.neet.tv/%board/;boards:4chan.org:a,fit,g,c,mu,gif,s",
    "boardnav": "[current-index-text:\"Index\"\ncurrent-catalog-text:\"Catalog\"\ncurrent-expired-text:\"Expired\"\ncurrent-archive-text:\"Archive\"]\n[a-title / fit-title / g-title / w-title / wsg-title / adv-title] [gif-title / s-title / h-title] [t-text:\"Piracy\"]",
    "QR.personas": "#options:\"sage\";boards:jp;always",
    "sjisPreview": false,
    "jsWhitelist": "http://s.4cdn.org\nhttps://s.4cdn.org\nhttp://www.google.com\nhttps://www.google.com\nhttps://www.gstatic.com\nhttp://cdn.mathjax.org\nhttps://cdn.mathjax.org\nhttps://cdnjs.cloudflare.com\nhttps://hcaptcha.com\nhttps://*.hcaptcha.com\n'self'\n'unsafe-inline'\n'unsafe-eval'",
    "captchaLanguage": "",
    "time": "%m/%d/%y(%a)%H:%M:%S",
    "timeLocale": "",
    "backlink": ">>%id",
    "pastedname": "file",
    "fileInfo": "%l %d (%p%s, %r%g)",
    "favicon": "ferongr",
    "usercss": "",
    "Toggle board list": "Ctrl+b",
    "Toggle header": "Shift+h",
    "Open empty QR": "q",
    "Open QR": "Shift+q",
    "Open settings": "Alt+o",
    "Close": "Esc",
    "Spoiler tags": "Ctrl+s",
    "Code tags": "Alt+c",
    "Eqn tags": "Alt+e",
    "Math tags": "Alt+m",
    "SJIS tags": "Alt+a",
    "Toggle sage": "Alt+s",
    "Toggle Cooldown": "Alt+Comma",
    "Post from URL": "Alt+l",
    "Add new post": "Alt+n",
    "Submit QR": "Ctrl+Enter",
    "Watch": "w",
    "Update": "r",
    "Update thread watcher": "Shift+r",
    "Toggle thread watcher": "t",
    "Toggle threading": "Shift+t",
    "Mark thread read": "Ctrl+0",
    "Expand image": "Shift+e",
    "Expand images": "e",
    "Open Gallery": "g",
    "Next Gallery Image": "Right",
    "Previous Gallery Image": "Left",
    "Advance Gallery": "Enter",
    "Pause": "p",
    "Slideshow": "Ctrl+Right",
    "Rotate image clockwise": "Shift+Right",
    "Rotate image anticlockwise": "Shift+Left",
    "fappeTyme": "f",
    "werkTyme": "Shift+w",
    "Front page": "1",
    "Open front page": "Shift+1",
    "Next page": "Ctrl+Right",
    "Previous page": "Ctrl+Left",
    "Paged mode": "Alt+1",
    "Infinite scrolling mode": "Alt+2",
    "All pages mode": "Alt+3",
    "Open catalog": "Shift+c",
    "Search form": "Ctrl+Alt+s",
    "Cycle sort type": "Alt+x",
    "Next thread": "Ctrl+Down",
    "Previous thread": "Ctrl+Up",
    "Expand thread": "Ctrl+e",
    "Open thread": "o",
    "Open thread tab": "Shift+o",
    "Next reply": "j",
    "Previous reply": "k",
    "Deselect reply": "Shift+d",
    "Hide": "x",
    "Quick Filter MD5": "5",
    "Previous Post Quoting You": "Alt+Up",
    "Next Post Quoting You": "Alt+Down",
    "Beep": false,
    "Beep Quoting You": false,
    "Auto Scroll": false,
    "Bottom Scroll": false,
    "Scroll BG": false,
    "Auto Update": true,
    "Optional Increase": false,
    "Interval": "5",
    "customCooldown": 0,
    "customCooldownEnabled": true,
    "Thread Quotes": false,
    "Max Replies": 1000,
    "Autohiding Scrollbar": true,
    "embedding.position": "top: 50px; right: 0px;",
    "thread-stats.position": "bottom: 0px; right: 0px;",
    "updater.position": "bottom: 0px; left: 0px;",
    "thread-watcher.position": "top: 46.7833px; left: 0px;",
    "qr.position": "top: 50.5px; right: 0px;",
    "captchaServiceDomain": "",
    "captchaServiceKey": {
      "https://api.captcha.guru": "",
      "https://azcaptcha.com": "",
      "https://2captcha.com": ""
    },
    "fourchanImageHost": "i.4cdn.org",
    "hiddenPSAList": {
      "4chan.org": "1603370594"
    },
    "knownBanners": "0.jpg,1.jpg,2.jpg,4.jpg,6.jpg,7.jpg,8.jpg,9.jpg,10.jpg,11.jpg,12.jpg,13.jpg,14.jpg,16.jpg,17.jpg,18.jpg,19.jpg,20.jpg,21.jpg,22.jpg,24.jpg,25.jpg,26.jpg,28.jpg,29.jpg,33.jpg,38.jpg,39.jpg,43.jpg,44.jpg,45.jpg,46.jpg,47.jpg,52.jpg,54.jpg,57.jpg,59.jpg,60.jpg,61.jpg,64.jpg,66.jpg,67.jpg,69.jpg,71.jpg,72.jpg,76.jpg,77.jpg,81.jpg,82.jpg,83.jpg,84.jpg,88.jpg,90.jpg,91.jpg,96.jpg,98.jpg,99.jpg,100.jpg,104.jpg,106.jpg,116.jpg,119.jpg,137.jpg,140.jpg,148.jpg,149.jpg,150.jpg,154.jpg,156.jpg,157.jpg,158.jpg,159.jpg,161.jpg,162.jpg,164.jpg,165.jpg,166.jpg,167.jpg,168.jpg,169.jpg,170.jpg,171.jpg,172.jpg,173.jpg,174.jpg,175.jpg,176.jpg,178.jpg,179.jpg,180.jpg,181.jpg,182.jpg,183.jpg,186.jpg,189.jpg,190.jpg,192.jpg,193.jpg,194.jpg,197.jpg,198.jpg,200.jpg,201.jpg,202.jpg,203.jpg,205.jpg,206.jpg,207.jpg,208.jpg,210.jpg,213.jpg,214.jpg,215.jpg,216.jpg,218.jpg,219.jpg,220.jpg,221.jpg,222.jpg,223.jpg,224.jpg,227.jpg,0.png,1.png,2.png,3.png,5.png,6.png,9.png,10.png,11.png,12.png,14.png,16.png,19.png,20.png,21.png,22.png,23.png,24.png,26.png,27.png,28.png,29.png,30.png,31.png,32.png,33.png,34.png,37.png,39.png,40.png,41.png,42.png,43.png,44.png,45.png,48.png,49.png,50.png,51.png,52.png,53.png,57.png,58.png,59.png,64.png,66.png,67.png,68.png,69.png,70.png,71.png,72.png,76.png,78.png,79.png,81.png,82.png,85.png,86.png,87.png,89.png,95.png,98.png,100.png,101.png,102.png,105.png,106.png,107.png,109.png,110.png,111.png,112.png,113.png,114.png,115.png,116.png,118.png,119.png,120.png,121.png,122.png,123.png,126.png,128.png,130.png,134.png,136.png,138.png,139.png,140.png,142.png,145.png,146.png,149.png,150.png,151.png,152.png,153.png,154.png,155.png,156.png,157.png,158.png,159.png,160.png,163.png,164.png,165.png,166.png,167.png,168.png,169.png,170.png,171.png,172.png,173.png,174.png,178.png,179.png,180.png,181.png,182.png,184.png,186.png,188.png,190.png,192.png,193.png,194.png,195.png,196.png,197.png,198.png,200.png,202.png,203.png,205.png,206.png,207.png,209.png,212.png,213.png,214.png,216.png,217.png,218.png,219.png,220.png,221.png,222.png,223.png,224.png,225.png,226.png,229.png,231.png,232.png,233.png,234.png,235.png,237.png,238.png,239.png,240.png,241.png,242.png,244.png,245.png,246.png,247.png,248.png,249.png,250.png,253.png,254.png,255.png,256.png,257.png,258.png,259.png,260.png,262.png,268.png,0.gif,1.gif,2.gif,3.gif,4.gif,5.gif,6.gif,7.gif,8.gif,9.gif,10.gif,12.gif,13.gif,14.gif,15.gif,16.gif,18.gif,19.gif,20.gif,21.gif,22.gif,23.gif,24.gif,28.gif,29.gif,30.gif,33.gif,34.gif,35.gif,36.gif,37.gif,39.gif,40.gif,42.gif,44.gif,45.gif,46.gif,48.gif,50.gif,52.gif,54.gif,55.gif,57.gif,58.gif,59.gif,60.gif,61.gif,63.gif,64.gif,66.gif,67.gif,68.gif,69.gif,70.gif,72.gif,73.gif,75.gif,76.gif,77.gif,78.gif,80.gif,81.gif,82.gif,83.gif,86.gif,87.gif,88.gif,92.gif,93.gif,94.gif,95.gif,96.gif,97.gif,98.gif,99.gif,100.gif,101.gif,102.gif,103.gif,104.gif,105.gif,106.gif,108.gif,109.gif,110.gif,111.gif,112.gif,113.gif,115.gif,116.gif,117.gif,118.gif,119.gif,120.gif,122.gif,123.gif,124.gif,127.gif,129.gif,130.gif,131.gif,134.gif,135.gif,136.gif,138.gif,139.gif,141.gif,144.gif,146.gif,148.gif,149.gif,153.gif,154.gif,155.gif,157.gif,158.gif,159.gif,160.gif,161.gif,162.gif,164.gif,166.gif,167.gif,168.gif,169.gif,170.gif,171.gif,172.gif,173.gif,174.gif,175.gif,176.gif,177.gif,178.gif,181.gif,182.gif,183.gif,185.gif,186.gif,187.gif,188.gif,189.gif,190.gif,191.gif,192.gif,193.gif,195.gif,196.gif,197.gif,200.gif,201.gif,202.gif,203.gif,204.gif,205.gif,206.gif,207.gif,208.gif,209.gif,210.gif,211.gif,212.gif,213.gif,214.gif,215.gif,216.gif,217.gif,219.gif,220.gif,221.gif,222.gif,224.gif,225.gif,226.gif,227.gif,228.gif,230.gif,232.gif,233.gif,234.gif,235.gif,238.gif,240.gif,241.gif,243.gif,244.gif,245.gif,246.gif,247.gif,249.gif,250.gif,251.gif,253.gif",
    "passMessageClosed": false,
    "Prerequest Captcha": false,
    "PSAseen": [],
    "hiddenThreads": {
      "4chan.org": {
        "boards": {},
        "lastChecked": 1601239990912
      },
      "version": 2
    },
    "hiddenPosts": {
      "4chan.org": {
        "boards": {},
        "lastChecked": 1616237063633
      },
      "version": 244
    },
    "lastReadPosts": {
      "4chan.org": {
        "boards": {
          "a": {
            "217766474": 217766474,
            "218283769": 218379549,
            "218469626": 218473016,
            "218679204": 218687417,
            "218746073": 218762642
          },
          "fit": {
            "17018018": 50984775,
            "60261967": 60281952,
            "60273477": 60294237,
            "60274999": 60280038,
            "60279925": 60287669,
            "60282298": 60285038,
            "60283877": 60284066,
            "60284872": 60287202,
            "60286392": 60288316,
            "60287051": 60289057,
            "60287765": 60288162,
            "60288085": 60288165
          },
          "g": {
            "76759434": 76759448,
            "80590274": 80618882,
            "80590624": 80610111,
            "80595562": 80626282,
            "80604072": 80610092,
            "80607475": 80609379,
            "80608995": 80609250,
            "80635839": 80654777,
            "80705036": 80728085,
            "80706295": 80711998,
            "80729351": 80767809,
            "80734339": 80756292,
            "80735338": 80735782,
            "80745839": 80752812,
            "80752502": 80758679,
            "80753439": 80756710,
            "80753837": 80755902,
            "80756973": 80759371,
            "80759024": 80762420,
            "80763503": 80764534,
            "80763738": 80763840,
            "80764853": 80768266,
            "80765476": 80768337,
            "80767177": 80767591,
            "80767315": 80769397,
            "80767590": 80772205
          },
          "h": {
            "3743858": 3744002
          },
          "i": {
            "611745": 612297
          },
          "s": {
            "9112225": 9240138
          },
          "t": {
            "687343": 687343
          },
          "vmg": {
            "1": 1
          },
          "w": {
            "2096984": 2185812,
            "2098386": 2193900,
            "2133122": 2172314,
            "2135183": 2136715,
            "2142923": 2193618,
            "2148127": 2161496,
            "2150598": 2152163,
            "2158061": 2194587,
            "2164311": 2194573,
            "2166299": 2195228,
            "2175066": 2178215,
            "2178830": 2195193,
            "2182774": 2193184,
            "2186379": 2195709,
            "2190023": 2195213,
            "2192639": 2195527
          },
          "wsg": {
            "3768662": 3812764,
            "3784642": 3808818,
            "3784705": 3828544,
            "3816005": 3827501,
            "3825219": 3828818
          }
        },
        "lastChecked": 1616414094576
      },
      "version": 65239
    },
    "yourPosts": {
      "4chan.org": {
        "boards": {
          "fit": {
            "60273477": {
              "60285967": true,
              "60286032": true,
              "60288195": true
            }
          },
          "g": {
            "80590274": {
              "80597133": true,
              "80597296": true,
              "80599828": true,
              "80599863": true,
              "80600014": true,
              "80601060": true,
              "80601803": true,
              "80601833": true,
              "80602014": true
            },
            "80595562": {
              "80626282": true
            },
            "80705036": {
              "80722358": true,
              "80722657": true
            },
            "80729351": {
              "80736533": true,
              "80736813": true,
              "80750422": true,
              "80756543": true,
              "80756768": true,
              "80759159": true
            },
            "80734339": {
              "80738579": true,
              "80741516": true,
              "80741578": true,
              "80741902": true
            },
            "80767590": {
              "80770408": true
            }
          },
          "w": {
            "2096984": {
              "2184248": true,
              "2184249": true,
              "2184250": true,
              "2184336": true
            },
            "2186379": {
              "2194018": true,
              "2194019": true,
              "2194020": true,
              "2194021": true,
              "2195135": true
            },
            "2190023": {
              "2190024": true,
              "2190025": true,
              "2190026": true,
              "2190027": true,
              "2190028": true,
              "2190029": true,
              "2190030": true,
              "2190031": true,
              "2190032": true,
              "2190033": true,
              "2190034": true,
              "2190035": true,
              "2190036": true,
              "2190037": true,
              "2190038": true,
              "2190039": true,
              "2190040": true,
              "2190042": true,
              "2190044": true,
              "2190046": true,
              "2190047": true,
              "2190048": true,
              "2190049": true,
              "2190050": true,
              "2190056": true,
              "2190057": true,
              "2190058": true,
              "2190059": true,
              "2190060": true,
              "2190061": true,
              "2190062": true,
              "2190063": true,
              "2190066": true,
              "2190067": true,
              "2190068": true,
              "2190069": true,
              "2190070": true,
              "2190071": true,
              "2190072": true,
              "2190073": true,
              "2190074": true,
              "2191680": true,
              "2191794": true
            },
            "2192639": {
              "2194022": true,
              "2194024": true,
              "2194915": true,
              "2195050": true
            }
          }
        },
        "lastChecked": 1616414094562
      },
      "version": 752
    },
    "watchedThreads": {
      "4chan.org": {
        "boards": {
          "a": {
            "208000000": {
              "excerpt": "/a/ - FAGGOTS",
              "isDead": true,
              "last": 208043462,
              "modified": 1598825779,
              "replies": 541
            }
          },
          "g": {
            "79608568": {
              "excerpt": "/g/ - Official /g/ desktop thread",
              "isArchived": true,
              "isDead": true,
              "last": 79633853,
              "quotingYou": 0,
              "replies": 321,
              "unread": 0
            },
            "79633847": {
              "excerpt": "/g/ - Desktop Thread",
              "isDead": true,
              "last": 79680501,
              "replies": 309
            },
            "80551346": {
              "excerpt": "/g/ - Downloading web",
              "isArchived": true,
              "isDead": true,
              "last": 80555920,
              "quotingYou": 0,
              "replies": 15,
              "unread": 0
            },
            "80590274": {
              "excerpt": "/g/ - desktop thread",
              "isArchived": true,
              "isDead": true,
              "quotingYou": 0,
              "replies": 321,
              "unread": 8,
              "last": 80619991
            },
            "80705036": {
              "excerpt": "/g/ - desktop thread",
              "replies": 315,
              "isDead": true,
              "isArchived": true,
              "unread": 26,
              "quotingYou": 0,
              "last": 80730815
            },
            "80729351": {
              "excerpt": "/g/ - Desktop Thread",
              "replies": 337,
              "isDead": true,
              "isArchived": true,
              "unread": 0,
              "quotingYou": 0,
              "last": 80767809,
              "modified": 1616403468
            },
            "80767590": {
              "excerpt": "/g/ - Desktop Thread",
              "page": 6,
              "lastPage": false,
              "modified": 1616419496,
              "last": 80772205,
              "replies": 57,
              "isDead": false,
              "isArchived": false,
              "unread": 0,
              "quotingYou": 0
            }
          },
          "w": {
            "2161666": {
              "excerpt": "/w/ - Desktop Thread XVI - REVIVED EDITION",
              "isDead": true,
              "last": 2181433,
              "modified": 1601662285,
              "replies": 315
            },
            "2179936": {
              "excerpt": "/w/ - Renders in Shapes #27",
              "isDead": true,
              "last": 2188141,
              "modified": 1608695553,
              "replies": 319
            },
            "2180136": {
              "excerpt": "/w/ - new desktop thread",
              "isDead": true,
              "last": 2191399,
              "modified": 1611934571,
              "replies": 322
            },
            "2186379": {
              "excerpt": "/w/ - Renders in Shapes #28",
              "isArchived": false,
              "isDead": false,
              "last": 2195720,
              "lastPage": false,
              "page": 1,
              "quotingYou": 0,
              "replies": 258,
              "unread": 1,
              "modified": 1616416867
            },
            "2190023": {
              "excerpt": "/w/ - kogecha/bard713",
              "isArchived": false,
              "isDead": false,
              "last": 2195213,
              "lastPage": false,
              "modified": 1615862514,
              "page": 8,
              "quotingYou": 0,
              "replies": 67,
              "unread": 0
            },
            "2192639": {
              "excerpt": "/w/ - Desktop Thread",
              "isArchived": false,
              "isDead": false,
              "last": 2195527,
              "lastPage": false,
              "page": 4,
              "quotingYou": 0,
              "replies": 78,
              "unread": 0,
              "modified": 1616185478
            }
          }
        }
      },
      "lastChecked": 1616430589402,
      "lastChecked2": 1616424260271,
      "version": 29988
    },
    "watcherLastModified": {
      "4chan.org": {
        "boards": {
          "a": {
            "https://a.4cdn.org/a/threads.json": "Tue, 16 Feb 2021 06:49:54 GMT"
          },
          "g": {
            "https://a.4cdn.org/g/threads.json": "Mon, 22 Mar 2021 16:29:48 GMT"
          },
          "w": {
            "https://a.4cdn.org/w/threads.json": "Mon, 22 Mar 2021 16:29:24 GMT"
          }
        }
      },
      "version": 8764
    },
    "customTitles": {
      "4chan.org": {
        "boards": {
          "qa": {
            "boardTitle": {
              "orig": "/qa/ - Question & Answer",
              "title": "/qa/ - 2D/Random"
            }
          }
        }
      }
    },
    "archives": [
      {
        "uid": 3,
        "name": "4plebs",
        "domain": "archive.4plebs.org",
        "http": true,
        "https": true,
        "software": "foolfuuka",
        "boards": [
          "adv",
          "f",
          "hr",
          "mlpol",
          "mo",
          "o",
          "pol",
          "s4s",
          "sp",
          "tg",
          "trv",
          "tv",
          "x"
        ],
        "files": [
          "adv",
          "f",
          "hr",
          "mlpol",
          "mo",
          "o",
          "pol",
          "s4s",
          "sp",
          "tg",
          "trv",
          "tv",
          "x"
        ],
        "reports": true
      },
      {
        "uid": 4,
        "name": "Nyafuu Archive",
        "domain": "archive.nyafuu.org",
        "http": false,
        "https": true,
        "software": "foolfuuka",
        "boards": [
          "bant",
          "c",
          "con",
          "e",
          "n",
          "news",
          "out",
          "p",
          "toy",
          "vip",
          "vmg",
          "vp",
          "vst",
          "vt",
          "w",
          "wg",
          "wsr"
        ],
        "files": [
          "bant",
          "c",
          "con",
          "e",
          "n",
          "news",
          "out",
          "p",
          "toy",
          "vip",
          "vmg",
          "vp",
          "vst",
          "vt",
          "w",
          "wg",
          "wsr"
        ],
        "reports": true
      },
      {
        "uid": 8,
        "name": "Rebecca Black Tech",
        "domain": "archive.rebeccablacktech.com",
        "http": false,
        "https": true,
        "software": "foolfuuka",
        "boards": [
          "cgl",
          "g",
          "mu"
        ],
        "files": [
          "cgl",
          "g",
          "mu"
        ],
        "reports": true
      },
      {
        "uid": 10,
        "name": "warosu",
        "domain": "warosu.org",
        "http": false,
        "https": true,
        "software": "fuuka",
        "boards": [
          "3",
          "biz",
          "cgl",
          "ck",
          "diy",
          "fa",
          "g",
          "ic",
          "jp",
          "lit",
          "sci",
          "tg",
          "vr",
          "vt"
        ],
        "files": [
          "3",
          "biz",
          "cgl",
          "ck",
          "diy",
          "fa",
          "g",
          "ic",
          "jp",
          "lit",
          "sci",
          "tg",
          "vr",
          "vt"
        ],
        "search": [
          "biz",
          "cgl",
          "ck",
          "diy",
          "fa",
          "g",
          "ic",
          "jp",
          "lit",
          "sci",
          "tg",
          "vr",
          "vt"
        ]
      },
      {
        "uid": 23,
        "name": "Desuarchive",
        "domain": "desuarchive.org",
        "http": true,
        "https": true,
        "software": "foolfuuka",
        "boards": [
          "a",
          "aco",
          "an",
          "c",
          "co",
          "d",
          "fit",
          "gif",
          "his",
          "int",
          "k",
          "m",
          "mlp",
          "q",
          "qa",
          "r9k",
          "tg",
          "trash",
          "vr",
          "wsg"
        ],
        "files": [
          "a",
          "aco",
          "an",
          "c",
          "co",
          "d",
          "fit",
          "gif",
          "his",
          "int",
          "k",
          "m",
          "mlp",
          "q",
          "qa",
          "r9k",
          "tg",
          "trash",
          "vr",
          "wsg"
        ],
        "reports": true
      },
      {
        "uid": 24,
        "name": "fireden.net",
        "domain": "boards.fireden.net",
        "http": false,
        "https": true,
        "software": "foolfuuka",
        "boards": [
          "cm",
          "co",
          "ic",
          "sci",
          "tg",
          "vip",
          "y"
        ],
        "files": [
          "cm",
          "co",
          "ic",
          "sci",
          "tg",
          "vip",
          "y"
        ],
        "search": [
          "cm",
          "co",
          "ic",
          "sci",
          "tg",
          "y"
        ]
      },
      {
        "uid": 25,
        "name": "arch.b4k.co",
        "domain": "arch.b4k.co",
        "http": true,
        "https": true,
        "software": "foolfuuka",
        "boards": [
          "g",
          "mlp",
          "v",
          "vg",
          "vm",
          "vmg",
          "vp",
          "vrpg",
          "vst"
        ],
        "files": [],
        "search": [
          "v",
          "vg",
          "vm",
          "vmg",
          "vrpg",
          "vst"
        ]
      },
      {
        "uid": 28,
        "name": "bstats",
        "domain": "archive.b-stats.org",
        "http": false,
        "https": true,
        "software": "foolfuuka",
        "boards": [
          "f",
          "cm",
          "hm",
          "lgbt",
          "news",
          "qst",
          "trash",
          "y"
        ],
        "files": []
      },
      {
        "uid": 29,
        "name": "Archived.Moe",
        "domain": "archived.moe",
        "http": true,
        "https": true,
        "software": "foolfuuka",
        "boards": [
          "3",
          "a",
          "aco",
          "adv",
          "an",
          "asp",
          "b",
          "bant",
          "biz",
          "c",
          "can",
          "cgl",
          "ck",
          "cm",
          "co",
          "cock",
          "con",
          "d",
          "diy",
          "e",
          "f",
          "fa",
          "fap",
          "fit",
          "fitlit",
          "g",
          "gd",
          "gif",
          "h",
          "hc",
          "his",
          "hm",
          "hr",
          "i",
          "ic",
          "int",
          "jp",
          "k",
          "lgbt",
          "lit",
          "m",
          "mlp",
          "mlpol",
          "mo",
          "mtv",
          "mu",
          "n",
          "news",
          "o",
          "out",
          "outsoc",
          "p",
          "po",
          "pol",
          "q",
          "qa",
          "qst",
          "r",
          "r9k",
          "s",
          "s4s",
          "sci",
          "soc",
          "sp",
          "spa",
          "t",
          "tg",
          "toy",
          "trash",
          "trv",
          "tv",
          "u",
          "v",
          "vg",
          "vint",
          "vip",
          "vmg",
          "vp",
          "vr",
          "vrpg",
          "w",
          "wg",
          "wsg",
          "wsr",
          "x",
          "y"
        ],
        "files": [
          "can",
          "cock",
          "con",
          "fap",
          "fitlit",
          "gd",
          "mlpol",
          "mo",
          "mtv",
          "outsoc",
          "po",
          "q",
          "qst",
          "spa",
          "vint",
          "vip"
        ],
        "search": [
          "aco",
          "adv",
          "an",
          "asp",
          "b",
          "bant",
          "c",
          "can",
          "cgl",
          "ck",
          "cm",
          "cock",
          "con",
          "d",
          "diy",
          "e",
          "f",
          "fap",
          "fitlit",
          "gd",
          "gif",
          "h",
          "hc",
          "his",
          "hm",
          "hr",
          "i",
          "ic",
          "lgbt",
          "lit",
          "mlpol",
          "mo",
          "mtv",
          "n",
          "news",
          "o",
          "out",
          "outsoc",
          "p",
          "po",
          "q",
          "qa",
          "qst",
          "r",
          "s",
          "soc",
          "spa",
          "trv",
          "u",
          "vint",
          "vip",
          "vrpg",
          "w",
          "wg",
          "wsg",
          "wsr",
          "x",
          "y"
        ],
        "reports": true
      },
      {
        "uid": 30,
        "name": "TheBArchive.com",
        "domain": "thebarchive.com",
        "http": true,
        "https": true,
        "software": "foolfuuka",
        "boards": [
          "b",
          "bant"
        ],
        "files": [
          "b",
          "bant"
        ],
        "reports": true
      },
      {
        "uid": 31,
        "name": "Archive Of Sins",
        "domain": "archiveofsins.com",
        "http": true,
        "https": true,
        "software": "foolfuuka",
        "boards": [
          "h",
          "hc",
          "hm",
          "i",
          "lgbt",
          "r",
          "s",
          "soc",
          "t",
          "u"
        ],
        "files": [
          "h",
          "hc",
          "hm",
          "i",
          "lgbt",
          "r",
          "s",
          "soc",
          "t",
          "u"
        ],
        "reports": true
      },
      {
        "uid": 34,
        "name": "TokyoChronos",
        "domain": "www.tokyochronos.net",
        "http": false,
        "https": true,
        "software": "foolfuuka",
        "boards": [
          "a",
          "g",
          "jp",
          "r9k",
          "vrpg",
          "vt"
        ],
        "files": [
          "a",
          "g",
          "jp",
          "r9k",
          "vrpg",
          "vt"
        ],
        "reports": true
      },
      {
        "uid": 35,
        "name": "Wakarimasen Archive",
        "domain": "archive.wakarimasen.moe",
        "http": true,
        "https": true,
        "software": "foolfuuka",
        "boards": [
          "3",
          "a",
          "aco",
          "adv",
          "an",
          "asp",
          "b",
          "bant",
          "biz",
          "c",
          "cgl",
          "ck",
          "cm",
          "co",
          "d",
          "diy",
          "e",
          "f",
          "fa",
          "fit",
          "g",
          "gd",
          "gif",
          "h",
          "hc",
          "his",
          "hm",
          "hr",
          "i",
          "ic",
          "int",
          "jp",
          "k",
          "lgbt",
          "lit",
          "m",
          "mlp",
          "mu",
          "n",
          "news",
          "o",
          "out",
          "p",
          "po",
          "pol",
          "pw",
          "qa",
          "qst",
          "r",
          "r9k",
          "s",
          "s4s",
          "sci",
          "soc",
          "sp",
          "t",
          "tg",
          "toy",
          "trash",
          "trv",
          "tv",
          "u",
          "v",
          "vg",
          "vip",
          "vm",
          "vmg",
          "vp",
          "vr",
          "vrpg",
          "vst",
          "vt",
          "w",
          "wg",
          "wsg",
          "wsr",
          "x",
          "xs",
          "y"
        ],
        "files": [
          "3",
          "a",
          "aco",
          "adv",
          "an",
          "asp",
          "b",
          "bant",
          "biz",
          "c",
          "cgl",
          "ck",
          "cm",
          "co",
          "d",
          "diy",
          "e",
          "f",
          "fa",
          "fit",
          "g",
          "gd",
          "gif",
          "h",
          "hc",
          "his",
          "hm",
          "hr",
          "i",
          "ic",
          "int",
          "jp",
          "k",
          "lgbt",
          "lit",
          "m",
          "mlp",
          "mu",
          "n",
          "news",
          "o",
          "out",
          "p",
          "po",
          "pol",
          "pw",
          "qa",
          "qst",
          "r",
          "r9k",
          "s",
          "s4s",
          "sci",
          "soc",
          "sp",
          "t",
          "tg",
          "toy",
          "trash",
          "trv",
          "tv",
          "u",
          "v",
          "vg",
          "vip",
          "vm",
          "vmg",
          "vp",
          "vr",
          "vrpg",
          "vst",
          "vt",
          "w",
          "wg",
          "wsg",
          "wsr",
          "x",
          "xs",
          "y"
        ],
        "reports": true
      }
    ],
    "selectedArchives": {},
    "cooldowns": {
      "a": {
        "1613456287321": {
          "postID": 216508704,
          "threadID": 216480376
        }
      },
      "fit": {
        "1615471738687": {
          "postID": 60288195,
          "threadID": 60273477
        }
      },
      "gif": {
        "1613494853473": {
          "postID": 19081811,
          "threadID": 19044962
        }
      },
      "mu": {
        "1613678312902": {
          "postID": 101715691,
          "threadID": 101695232
        }
      },
      "pol": {
        "1611392838267": {
          "postID": 304582330,
          "threadID": 304577782
        }
      },
      "r": {
        "1593553488050": {
          "postID": 17400214,
          "threadID": 17400214
        }
      },
      "w": {
        "1614676654318": {
          "postID": 2194024,
          "threadID": 2192639
        }
      },
      "wsr": {
        "1609515662963": {
          "postID": 949652,
          "threadID": 949649
        }
      },
      "g": {
        "1616420125137": {
          "threadID": 80767590,
          "postID": 80770408
        }
      }
    },
    "Index Sort": {
      "a": "replycount",
      "adv": "birth",
      "b": "replycount",
      "fa": "replycount",
      "fit": "replycount",
      "g": "replycount",
      "gif": "replycount",
      "h": "replycount",
      "jp": "replycount",
      "mu": "replycount",
      "pol": "replycount",
      "r": "replycount",
      "s": "replycount",
      "sp": "replycount",
      "t": "replycount",
      "vmg": "replycount",
      "vt": "replycount",
      "w": "replycount",
      "wsg": "replycount",
      "wsr": "replycount",
      "x": "replycount"
    },
    "Last Long Reply Thresholds 0": {},
    "Last Long Reply Thresholds 1": {},
    "siteProperties": {
      "4chan.org": {
        "software": "yotsuba"
      },
      "4channel.org": {
        "canonical": "4chan.org"
      },
      "4cdn.org": {
        "canonical": "4chan.org"
      },
      "notso.smuglo.li": {
        "canonical": "smuglo.li"
      },
      "smugloli.net": {
        "canonical": "smuglo.li"
      },
      "smug.nepu.moe": {
        "canonical": "smuglo.li"
      }
    },
    "Except Archives from Encryption": false,
    "JSON Navigation": true,
    "Oekaki Links": true,
    "Show Name and Subject": false,
    "QR Shortcut": true,
    "Bottom QR Link": true,
    "Toggleable Thread Watcher": true,
    "siteSoftware": "",
    "Use Faster Image Host": "true"
  }
}